<?xml version="1.0" standalone="no"?>
<!DOCTYPE svg PUBLIC "-//W3C//DTD SVG 20010904//EN"
 "http://www.w3.org/TR/2001/REC-SVG-20010904/DTD/svg10.dtd">
<svg version="1.0" xmlns="http://www.w3.org/2000/svg"
 width="487.000000pt" height="487.000000pt" viewBox="0 0 487.000000 487.000000"
 preserveAspectRatio="xMidYMid meet">
<metadata>
Created by potrace 1.11, written by Peter Selinger 2001-2013
</metadata>
<g transform="translate(0.000000,487.000000) scale(0.100000,-0.100000)"
fill="#000000" stroke="none">
<path d="M2958 4738 c-9 -7 -166 -242 -348 -523 l-331 -510 5 -194 c3 -107 6
-360 6 -563 l0 -368 582 -2 581 -3 -579 -341 -579 -342 -3 -226 c-1 -124 -1
-226 2 -226 3 0 2282 1341 2470 1454 88 53 114 85 97 122 l-12 27 -899 -5
-900 -4 -2 855 -3 856 -35 3 c-19 2 -43 -3 -52 -10z"/>
<path d="M45 3020 c-32 -12 -47 -36 -43 -70 2 -26 35 -61 188 -205 l185 -174
592 -1 591 0 146 225 c80 123 146 227 146 230 0 8 -1783 4 -1805 -5z"/>
<path d="M1847 2648 c-52 -79 -119 -182 -150 -230 l-56 -88 -243 -2 c-232 -3
-243 -4 -246 -22 -3 -15 33 -56 139 -156 l143 -136 -142 -220 c-78 -121 -142
-228 -142 -236 0 -45 40 -29 270 106 126 75 232 136 236 136 3 0 68 -58 144
-130 104 -99 143 -130 163 -130 l27 0 2 232 3 232 235 138 c197 115 235 141
235 160 l0 23 -237 3 -238 2 -2 228 c-3 227 -3 227 -25 230 -19 3 -37 -19
-116 -140z"/>
<path d="M956 1102 l-589 -347 -184 -284 c-203 -315 -212 -336 -138 -336 35 0
154 67 922 520 486 286 882 523 880 527 -4 15 -279 268 -291 268 -6 0 -276
-156 -600 -348z"/>
</g>
</svg>
